Manipulating, analyzing and exporting data with tidyverse • compbio2020
…
To select all columns except certain ones, put a “-” in
front of the variable to exclude it.

select(surveys, -record_id, -species_id)

This will select all the variables in surveys except
record_id and species_id.

To choose rows based on a specific criteria, use
filter():

filter(surveys, year == 1995)

## # A tibble: 1,180 × 13
##    record_id month   day  year plot_id species_id sex   hindfoot_length weight
##        <dbl> <dbl> <dbl> <dbl>   <dbl> <chr>      <chr>           <dbl>  <dbl>
##  1     22314     6     7  1995       2 NL         M                  34     NA
##  2     22728     9    23  1995       2 NL         F                  32    165
##  3     22899    10    28  1995       2 NL         F                  32    171
##  4     23032    12     2  1995       2 NL         F                  33     NA
##  5     22003     1    11  1995       2 DM         M                  37     41
##  6     22042     2     4  1995       2 DM         F                  36     45
##  7     22044     2     4  1995       2 DM         M                  37     46
##  8     22105     3     4  1995       2 DM         F                  37     49
##  9     22109     3     4  1995       2 DM         M                  37     46
## 10     22168     4     1  1995       2 DM         M                  36     48
## # ℹ 1,170 more rows
## # ℹ 4 more variables: genus <chr>, species <chr>, taxa <chr>, plot_type <chr>
…
Mutate

Frequently you’ll want to create new columns based on the values in
existing columns, for example to do unit conversions, or to find the
ratio of values in two columns. For this we’ll use
mutate().

To create a new column of weight in kg:

surveys %>%
  mutate(weight_kg = weight / 1000)

## # A tibble: 34,786 × 14
##    record_id month   day  year plot_id species_id sex   hindfoot_length weight
##        <dbl> <dbl> <dbl> <dbl>   <dbl> <chr>      <chr>           <dbl>  <dbl>
##  1         1     7    16  1977       2 NL         M                  32     NA
##  2        72     8    19  1977       2 NL         M                  31     NA
##  3       224     9    13  1977       2 NL         NA                 NA     NA
##  4       266    10    16  1977       2 NL         NA                 NA     NA
##  5       349    11    12  1977       2 NL         NA                 NA     NA
##  6       363    11    12  1977       2 NL         NA                 NA     NA
##  7       435    12    10  1977       2 NL         NA                 NA     NA
##  8       506     1     8  1978       2 NL         NA                 NA     NA
##  9       588     2    18  1978       2 NL         M                  NA    218
## 10       661     3    11  1978       2 NL         NA                 NA     NA
## # ℹ 34,776 more rows
## # ℹ 5 more variables: genus <chr>, species <chr>, taxa <chr>, plot_type <chr>,
## #   weight_kg <dbl>

You can also create a second new column based on the first new column
within the same call of mutate():

surveys %>%
  mutate(weight_kg = weight / 1000,
         weight_kg2 = weight_kg * 2)

## # A tibble: 34,786 × 15
##    record_id month   day  year plot_id species_id sex   hindfoot_length weight
##        <dbl> <dbl> <dbl> <dbl>   <dbl> <chr>      <chr>           <dbl>  <dbl>
##  1         1     7    16  1977       2 NL         M                  32     NA
##  2        72     8    19  1977       2 NL         M                  31     NA
##  3       224     9    13  1977       2 NL         NA                 NA     NA
##  4       266    10    16  1977       2 NL         NA                 NA     NA
##  5       349    11    12  1977       2 NL         NA                 NA     NA
##  6       363    11    12  1977       2 NL         NA                 NA     NA
##  7       435    12    10  1977       2 NL         NA                 NA     NA
##  8       506     1     8  1978       2 NL         NA                 NA     NA
##  9       588     2    18  1978       2 NL         M                  NA    218
## 10       661     3    11  1978       2 NL         NA                 NA     NA
## # ℹ 34,776 more rows
## # ℹ 6 more variables: genus <chr>, species <chr>, taxa <chr>, plot_type <chr>,
## #   weight_kg <dbl>, weight_kg2 <dbl>
…
You may also have noticed that the output from these calls doesn’t
run off the screen anymore. It’s one of the advantages of
tbl_df over data frame.

You can also group by multiple columns:

surveys %>%
  group_by(sex, species_id) %>%
  summarize(mean_weight = mean(weight, na.rm = TRUE))

## `summarise()` has grouped output by 'sex'. You can override using the `.groups`
## argument.

## # A tibble: 92 × 3
## # Groups:   sex [3]
##    sex   species_id mean_weight
##    <chr> <chr>            <dbl>
##  1 F     BA                9.16
##  2 F     DM               41.6 
##  3 F     DO               48.5 
##  4 F     DS              118.  
##  5 F     NL              154.  
##  6 F     OL               31.1 
##  7 F     OT               24.8 
##  8 F     OX               21   
##  9 F     PB               30.2 
## 10 F     PE               22.8 
## # ℹ 82 more rows
…
surveys %>%
  filter(!is.na(weight)) %>%
  group_by(sex, species_id) %>%
  summarize(mean_weight = mean(weight))

## `summarise()` has grouped output by 'sex'. You can override using the `.groups`
## argument.

## # A tibble: 64 × 3
## # Groups:   sex [3]
##    sex   species_id mean_weight
##    <chr> <chr>            <dbl>
##  1 F     BA                9.16
##  2 F     DM               41.6 
##  3 F     DO               48.5 
##  4 F     DS              118.  
##  5 F     NL              154.  
##  6 F     OL               31.1 
##  7 F     OT               24.8 
##  8 F     OX               21   
##  9 F     PB               30.2 
## 10 F     PE               22.8 
## # ℹ 54 more rows
Here, again, the output from these calls doesn’t run off the screen
anymore. If you want to display more data, you can use the
print() function at the end of your chain with the argument
n specifying the number of rows to display:

surveys %>%
  filter(!is.na(weight)) %>%
  group_by(sex, species_id) %>%
  summarize(mean_weight = mean(weight)) %>%
  print(n = 15)

## `summarise()` has grouped output by 'sex'. You can override using the `.groups`
## argument.

## # A tibble: 64 × 3
## # Groups:   sex [3]
##    sex   species_id mean_weight
##    <chr> <chr>            <dbl>
##  1 F     BA                9.16
##  2 F     DM               41.6 
##  3 F     DO               48.5 
##  4 F     DS              118.  
##  5 F     NL              154.  
##  6 F     OL               31.1 
##  7 F     OT               24.8 
##  8 F     OX               21   
##  9 F     PB               30.2 
## 10 F     PE               22.8 
## 11 F     PF                7.97
## 12 F     PH               30.8 
## 13 F     PL               19.3 
## 14 F     PM               22.1 
## 15 F     PP               17.2 
## # ℹ 49 more rows
Once the data are grouped, you can also summarize multiple variables
at the same time (and not necessarily on the same variable). For
instance, we could add a column indicating the minimum weight for each
species for each sex:

surveys %>%
  filter(!is.na(weight)) %>%
  group_by(sex, species_id) %>%
  summarize(mean_weight = mean(weight),
            min_weight = min(weight))

## `summarise()` has grouped output by 'sex'. You can override using the `.groups`
## argument.

## # A tibble: 64 × 4
## # Groups:   sex [3]
##    sex   species_id mean_weight min_weight
##    <chr> <chr>            <dbl>      <dbl>
##  1 F     BA                9.16          6
##  2 F     DM               41.6          10
##  3 F     DO               48.5          12
##  4 F     DS              118.           45
##  5 F     NL              154.           32
##  6 F     OL               31.1          10
##  7 F     OT               24.8           5
##  8 F     OX               21            20
##  9 F     PB               30.2          12
## 10 F     PE               22.8          11
## # ℹ 54 more rows
It is sometimes useful to rearrange the result of a query to inspect
the values. For instance, we can sort on min_weight to put
the lighter species first:

surveys %>%
  filter(!is.na(weight)) %>%
  group_by(sex, species_id) %>%
  summarize(mean_weight = mean(weight),
            min_weight = min(weight)) %>%
  arrange(min_weight)

## `summarise()` has grouped output by 'sex'. You can override using the `.groups`
## argument.

## # A tibble: 64 × 4
## # Groups:   sex [3]
##    sex   species_id mean_weight min_weight
##    <chr> <chr>            <dbl>      <dbl>
##  1 F     PF                7.97          4
##  2 F     RM               11.1           4
##  3 M     PF                7.89          4
##  4 M     PP               17.2           4
##  5 M     RM               10.1           4
##  6 NA    PF                6             4
##  7 F     OT               24.8           5
##  8 F     PP               17.2           5
##  9 F     BA                9.16          6
## 10 M     BA                7.36          6
## # ℹ 54 more rows
To sort in descending order, we need to add the desc()
function. If we want to sort the results by decreasing order of mean
weight:

surveys %>%
  filter(!is.na(weight)) %>%
  group_by(sex, species_id) %>%
  summarize(mean_weight = mean(weight),
            min_weight = min(weight)) %>%
  arrange(desc(mean_weight))

## `summarise()` has grouped output by 'sex'. You can override using the `.groups`
## argument.

## # A tibble: 64 × 4
## # Groups:   sex [3]
##    sex   species_id mean_weight min_weight
##    <chr> <chr>            <dbl>      <dbl>
##  1 NA    NL               168.          83
##  2 M     NL               166.          30
##  3 F     NL               154.          32
##  4 M     SS               130          130
##  5 NA    SH               130          130
##  6 M     DS               122.          12
##  7 NA    DS               120           78
##  8 F     DS               118.          45
##  9 F     SH                78.8         30
## 10 F     SF                69           46
## # ℹ 54 more rows
…
Previous example shows the use of count() to count the
number of rows/observations for one factor (i.e.,
sex). If we wanted to count combination of
factors, such as sex and species, we
would specify the first and the second factor as the arguments of
count():

surveys %>%
  count(sex, species) 

## # A tibble: 81 × 3
##    sex   species         n
##    <chr> <chr>       <int>
##  1 F     albigula      675
##  2 F     baileyi      1646
##  3 F     eremicus      579
##  4 F     flavus        757
##  5 F     fulvescens     57
##  6 F     fulviventer    17
##  7 F     hispidus       99
##  8 F     leucogaster   475
##  9 F     leucopus       16
## 10 F     maniculatus   382
## # ℹ 71 more rows

With the above code, we can proceed with arrange() to
sort the table according to a number of criteria so that we have a
better comparison. For instance, we might want to arrange the table
above in (i) an alphabetical order of the levels of the species and (ii)
in descending order of the count:

surveys %>%
  count(sex, species) %>%
  arrange(species, desc(n))

## # A tibble: 81 × 3
##    sex   species             n
##    <chr> <chr>           <int>
##  1 F     albigula          675
##  2 M     albigula          502
##  3 NA    albigula           75
##  4 NA    audubonii          75
##  5 F     baileyi          1646
##  6 M     baileyi          1216
##  7 NA    baileyi            29
##  8 NA    bilineata         303
##  9 NA    brunneicapillus    50
## 10 NA    chlorurus          39
## # ℹ 71 more rows
…
surveys %>%
    filter(!is.na(hindfoot_length)) %>%
    group_by(species_id) %>%
    summarize(
        mean_hindfoot_length = mean(hindfoot_length),
        min_hindfoot_length = min(hindfoot_length),
        max_hindfoot_length = max(hindfoot_length),
        n = n()
    )

## # A tibble: 25 × 5
##    species_id mean_hindfoot_length min_hindfoot_length max_hindfoot_length     n
##    <chr>                     <dbl>               <dbl>               <dbl> <int>
##  1 AH                         33                    31                  35     2
##  2 BA                         13                     6                  16    45
##  3 DM                         36.0                  16                  50  9972
##  4 DO                         35.6                  26                  64  2887
##  5 DS                         49.9                  39                  58  2132
##  6 NL                         32.3                  21                  70  1074
##  7 OL                         20.5                  12                  39   920
##  8 OT                         20.3                  13                  50  2139
##  9 OX                         19.1                  13                  21     8
## 10 PB                         26.1                   2                  47  2864
## # ℹ 15 more rows

What was the heaviest animal measured in each year? Return the
columns year, genus, species_id,
and weight.

surveys %>%
    filter(!is.na(weight)) %>%
    group_by(year) %>%
    filter(weight == max(weight)) %>%
    select(year, genus, species, weight) %>%
    arrange(year)

## # A tibble: 27 × 4
## # Groups:   year [26]
##     year genus     species     weight
##    <dbl> <chr>     <chr>        <dbl>
##  1  1977 Dipodomys spectabilis    149
##  2  1978 Neotoma   albigula       232
##  3  1978 Neotoma   albigula       232
##  4  1979 Neotoma   albigula       274
##  5  1980 Neotoma   albigula       243
##  6  1981 Neotoma   albigula       264
##  7  1982 Neotoma   albigula       252
##  8  1983 Neotoma   albigula       256
##  9  1984 Neotoma   albigula       259
## 10  1985 Neotoma   albigula       225
## # ℹ 17 more rows
…
Now take that data frame and gather() it again, so each
row is a unique plot_id by year
combination.

rich_time %>%
  gather(year, n_genera, -plot_id)

## # A tibble: 624 × 3
## # Groups:   plot_id [24]
##    plot_id year  n_genera
##      <dbl> <chr>    <int>
##  1       1 1977         2
##  2       2 1977         6
##  3       3 1977         5
##  4       4 1977         4
##  5       5 1977         4
##  6       6 1977         3
##  7       7 1977         3
##  8       8 1977         2
##  9       9 1977         3
## 10      10 1977         1
## # ℹ 614 more rows
…
surveys_long %>%
  group_by(year, measurement, plot_type) %>%
  summarize(mean_value = mean(value, na.rm=TRUE)) %>%
  spread(measurement, mean_value)

## `summarise()` has grouped output by 'year', 'measurement'. You can override
## using the `.groups` argument.

## # A tibble: 130 × 4
## # Groups:   year [26]
##     year plot_type                 hindfoot_length weight
##    <dbl> <chr>                               <dbl>  <dbl>
##  1  1977 Control                              36.1   50.4
##  2  1977 Long-term Krat Exclosure             33.7   34.8
##  3  1977 Rodent Exclosure                     39.1   48.2
##  4  1977 Short-term Krat Exclosure            35.8   41.3
##  5  1977 Spectab exclosure                    37.2   47.1
##  6  1978 Control                              38.1   70.8
##  7  1978 Long-term Krat Exclosure             22.6   35.9
##  8  1978 Rodent Exclosure                     37.8   67.3
##  9  1978 Short-term Krat Exclosure            36.9   63.8
## 10  1978 Spectab exclosure                    42.3   80.1
## # ℹ 120 more rows
…
