Functions and repeatability • compbio2020
…
We may want to select data from a data frame inside a function. We
can do that like so:

remove_nas <- function(data){
  clean <- data %>%
     na.omit(data) %>%
     select(weight)
   return(clean)
}

remove_nas(surveys)

## # A tibble: 30,676 × 1
##    weight
##     <dbl>
##  1    204
##  2    199
##  3    197
##  4    166
##  5    184
##  6    206
##  7    274
##  8    186
##  9    184
## 10     87
## # ℹ 30,666 more rows
…
remove_nas <- function(data, column){
  clean <- data %>%
     na.omit(data) %>%
     select({{column}})
   return(clean)
}

remove_nas(surveys, hindfoot_length)

## # A tibble: 30,676 × 1
##    hindfoot_length
##              <dbl>
##  1              32
##  2              34
##  3              32
##  4              33
##  5              32
##  6              32
##  7              33
##  8              30
##  9              33
## 10              31
## # ℹ 30,666 more rows
…
#Solution One
remove_nas <- function(data, column, column1){
  clean <- data %>%
     na.omit(data) %>%
     select({{column}}, {{column1}})
   return(clean)
}

remove_nas(surveys, hindfoot_length, weight)

## # A tibble: 30,676 × 2
##    hindfoot_length weight
##              <dbl>  <dbl>
##  1              32    204
##  2              34    199
##  3              32    197
##  4              33    166
##  5              32    184
##  6              32    206
##  7              33    274
##  8              30    186
##  9              33    184
## 10              31     87
## # ℹ 30,666 more rows
…
