GBIF And Spatial Data • compbio2020
…
#Get GBIF ids for our vector of species.

ids <-c()
  for (ant in ants){
   print(ant)
   raw <- name_suggest(ant)
   print(raw)
   ids[ant] <- c(raw$data$key)
}

## [1] "Martialis"
## Records returned [74] 
## No. unique hierarchies [0] 
## Args [q=Martialis, limit=100, fields1=key, fields2=canonicalName, fields3=rank] 
## # A tibble: 74 × 3
##        key canonicalName       rank    
##      <int> <chr>               <chr>   
##  1 7744356 Martialis           GENUS   
##  2 9599316 ? martialis         UNRANKED
##  3 7437085 Martialis heureka   SPECIES 
##  4 5025232 Agathis martialis   SPECIES 
##  5 5510493 Globulina martialis SPECIES 
##  6 7395874 Cantharis martialis SPECIES 
##  7 4460321 Timarcha martialis  SPECIES 
##  8 5046218 Eulophus martialis  SPECIES 
##  9 5977251 Erynnis martialis   SPECIES 
## 10 4544067 Aculus martialis    SPECIES 
## # … with 64 more rows

## Warning in ids[ant] <- c(raw$data$key): number of items to replace is not a
## multiple of replacement length

## [1] "Atta"
## Records returned [100] 
## No. unique hierarchies [0] 
## Args [q=Atta, limit=100, fields1=key, fields2=canonicalName, fields3=rank] 
## # A tibble: 100 × 3
##        key canonicalName    rank   
##      <int> <chr>            <chr>  
##  1 6006602 Atta             GENUS  
##  2 1323108 Atta             GENUS  
##  3 5035740 Atta silvae      SPECIES
##  4 5035749 Atta domicola    SPECIES
##  5 8368352 Atta penetrans   SPECIES
##  6 5035739 Atta robusta     SPECIES
##  7 5035737 Atta goiana      SPECIES
##  8 8166766 Atta diligens    SPECIES
##  9 7390841 Atta scalpturata SPECIES
## 10 5035746 Atta saltensis   SPECIES
## # … with 90 more rows

## Warning in ids[ant] <- c(raw$data$key): number of items to replace is not a
## multiple of replacement length

## [1] "Ectatomma"
## Records returned [87] 
## No. unique hierarchies [0] 
## Args [q=Ectatomma, limit=100, fields1=key, fields2=canonicalName, fields3=rank] 
## # A tibble: 87 × 3
##        key canonicalName          rank   
##      <int> <chr>                  <chr>  
##  1 1314135 Ectatomma              GENUS  
##  2 1314136 Ectatomma gibbum       SPECIES
##  3 1314147 Ectatomma edentatum    SPECIES
##  4 9175376 Ectatomma rimulosum    SPECIES
##  5 1314150 Ectatomma tuberculatum SPECIES
##  6 4673125 Ectatomma rothneyi     SPECIES
##  7 4673127 Ectatomma socrus       SPECIES
##  8 7570313 Ectatomma parasiticum  SPECIES
##  9 8217186 Ectatomma tornatum     SPECIES
## 10 8224209 Ectatomma dolo         SPECIES
## # … with 77 more rows
…
## Warning in ids[ant] <- c(raw$data$key): number of items to replace is not a
## multiple of replacement length

## [1] "Aenictus"
## Records returned [100] 
## No. unique hierarchies [0] 
## Args [q=Aenictus, limit=100, fields1=key, fields2=canonicalName, fields3=rank] 
## # A tibble: 100 × 3
##        key canonicalName          rank   
##      <int> <chr>                  <chr>  
##  1 1317499 Aenictus               GENUS  
##  2 1317539 Aenictus laeviceps     SPECIES
##  3 8423108 Aenictus rotundicollis SPECIES
##  4 8992160 Aenictus wiwatwitayai  SPECIES
##  5 1317567 Aenictus camposi       SPECIES
##  6 1317578 Aenictus pharoa        SPECIES
##  7 1317639 Aenictus foreli        SPECIES
##  8 1317508 Aenictus alticola      SPECIES
##  9 1317577 Aenictus buttgenbachi  SPECIES
## 10 1317661 Aenictus hilli         SPECIES
## # … with 90 more rows
…
