Camera Trap Data Analysis • compbio2020
…
names(cam)

##  [1] "Project"                   "Subproject"               
##  [3] "Treatment"                 "Deployment Name"          
##  [5] "ID Type"                   "Deployment ID"            
##  [7] "Sequence ID"               "Begin Time"               
##  [9] "End Time"                  "Species Name"             
## [11] "Common Name"               "Age"                      
## [13] "Sex"                       "Individually Identifiable"
## [15] "Count"                     "Actual Lat"               
## [17] "Actual Lon"                "Fuzzed"

cam

## # A tibble: 8,683 × 18
##    Project      Subproject Treatment `Deployment Name` `ID Type` `Deployment ID`
##    <chr>        <chr>      <lgl>     <chr>             <chr>     <list>         
##  1 Okaloosa S.… Florida B… NA        SQ66_Cam393       Research… <dbl [1]>      
##  2 Okaloosa S.… Florida B… NA        SQ66_Cam393       Research… <dbl [1]>      
##  3 Okaloosa S.… Florida B… NA        SQ66_Cam393       Research… <dbl [1]>      
##  4 Okaloosa S.… Florida B… NA        SQ66_Cam393       Research… <dbl [1]>      
##  5 Okaloosa S.… Florida U… NA        SQ122_Cam279      Research… <dbl [1]>      
##  6 Okaloosa S.… Florida U… NA        SQ122_Cam279      Research… <dbl [1]>      
##  7 Okaloosa S.… Florida U… NA        SQ122_Cam279      Research… <dbl [1]>      
##  8 Okaloosa S.… Florida U… NA        SQ122_Cam279      Research… <dbl [1]>      
##  9 Okaloosa S.… Florida U… NA        SQ122_Cam279      Research… <dbl [1]>      
## 10 Okaloosa S.… Florida U… NA        SQ122_Cam279      Research… <dbl [1]>      
## # ℹ 8,673 more rows
## # ℹ 12 more variables: `Sequence ID` <chr>, `Begin Time` <list>,
## #   `End Time` <list>, `Species Name` <chr>, `Common Name` <chr>, Age <chr>,
## #   Sex <chr>, `Individually Identifiable` <chr>, Count <dbl>,
## #   `Actual Lat` <dbl>, `Actual Lon` <dbl>, Fuzzed <lgl>
…
speciesCount <- cam %>% 
  select(Common.Name, Count, Subproject) %>% 
  group_by(Common.Name, Subproject) %>% #Here I group the data by species and the subproject
  summarize(totalCount = sum(Count)) %>% #This now gives the sum of the count of each species per subproject
  spread(Subproject, totalCount) #Now I need to change the orientation so that species are rows and subprojects are columns. This pivots the table to do that. More explanation here: https://rpubs.com/bradleyboehmke/data_wrangling
speciesCount

## # A tibble: 40 × 6
## # Groups:   Common.Name [40]
##    Common.Name   Florida.Bottomland.H…¹ Florida.Coastal.Fore…² Florida.Developed
##    <chr>                          <dbl>                  <dbl>             <dbl>
##  1 American.Bla…                     30                     NA                 1
##  2 Animal.Not.o…                     NA                      2                NA
##  3 Bobcat                            20                      8                 1
##  4 Calibration.…                     10                      2                NA
##  5 Camera.Misfi…                    418                      1                NA
##  6 Camera.Trapp…                    402                     52                29
##  7 Coyote                            44                     31                 8
##  8 Domestic.Cat                      NA                     22                18
##  9 Domestic.Dog                      11                     12                37
## 10 Domestic.Hor…                      1                     NA                NA
## # ℹ 30 more rows
## # ℹ abbreviated names: ¹​Florida.Bottomland.Hardwood.Forest,
## #   ²​Florida.Coastal.Forest.Dunes
## # ℹ 2 more variables: Florida.Upland.Hardwood.Forest <dbl>,
## #   Florida.Upland.Pine.Sandhill <dbl>
…
