Tables.Rmd • compbio2020
…
These are some viable options for small tables. Let’s think about
bigger tables. Big things are hard to look at. Let’s get a good, but not
overwhelming, amount of data.

data_for_table <- surveys %>% 
  na.omit() %>% 
  select(species_id, weight, year) %>% 
  group_by(year) %>% 
  summarize(mean_weight = mean(weight)) %>% 
  arrange()
data_for_table

## # A tibble: 26 × 2
##     year mean_weight
##    <dbl>       <dbl>
##  1  1977        46.6
##  2  1978        66.2
##  3  1979        63.2
##  4  1980        64.6
##  5  1981        65.2
##  6  1982        52.7
##  7  1983        54.7
##  8  1984        50.7
##  9  1985        46.4
## 10  1986        54.9
## # ℹ 16 more rows
…
